{
  "project_info": {
    "project_number": "221374979404",
    "firebase_url": "https://doctor-diabet-org.firebaseio.com",
    "project_id": "doctor-diabet-org",
    "storage_bucket": "doctor-diabet-org.appspot.com"
  },
  "client": [
    {
      "client_info": {
        "mobilesdk_app_id": "1:221374979404:android:ce5bef57586aef8a",
        "android_client_info": {
          "package_name": "org.doctordiabet"
        }
      },
      "oauth_client": [
        {
          "client_id": "221374979404-pf2ctk8litmqoon39shpo1r9e9155nd4.apps.googleusercontent.com",
          "client_type": 3
        }
      ],
      "api_key": [
        {
          "current_key": "AIzaSyBKtc0j0_mtdxFTCksCqvJe2nSfVDjPgtw"
        }
      ],
      "services": {
        "analytics_service": {
          "status": 1
        },
        "appinvite_service": {
          "status": 1,
          "other_platform_oauth_client": []
        },
        "ads_service": {
          "status": 2
        }
      }
    }
  ],
  "configuration_version": "1"
}